…
``` r
## load the dataset
library(p8105.datasets)
data("instacart")
```

#### a) The goal is to do some exploration of this dataset. To that end, write a short description of the dataset, noting the size and structure of the data, describing some key variables, and giving illstrative examples of observations. Then, do or answer the following (commenting on the results of each):

``` r
instacart ## take a look at the data
```

    ## # A tibble: 1,384,617 × 15
    ##    order_id product_id add_to_cart_order reordered user_id eval_set order_number
    ##       <int>      <int>             <int>     <int>   <int> <chr>           <int>
    ##  1        1      49302                 1         1  112108 train               4
    ##  2        1      11109                 2         1  112108 train               4
    ##  3        1      10246                 3         0  112108 train               4
    ##  4        1      49683                 4         0  112108 train               4
    ##  5        1      43633                 5         1  112108 train               4
    ##  6        1      13176                 6         0  112108 train               4
    ##  7        1      47209                 7         0  112108 train               4
    ##  8        1      22035                 8         1  112108 train               4
    ##  9       36      39612                 1         0   79431 train              23
    ## 10       36      19660                 2         1   79431 train              23
    ## # … with 1,384,607 more rows, and 8 more variables: order_dow <int>,
    ## #   order_hour_of_day <int>, days_since_prior_order <int>, product_name <chr>,
    ## #   aisle_id <int>, department_id <int>, aisle <chr>, department <chr>
…
#### b) How many aisles are there, and which aisles are the most items ordered from?

``` r
 instacart_df = 
  instacart %>% 
  group_by(aisle) %>% 
  summarize(n_order = n()) %>% 
  arrange(desc(n_order)) #arrange(desc(n_order)) ## rank the number of order of each aisle

instacart_df
```

    ## # A tibble: 134 × 2
    ##    aisle                         n_order
    ##    <chr>                           <int>
    ##  1 fresh vegetables               150609
    ##  2 fresh fruits                   150473
    ##  3 packaged vegetables fruits      78493
    ##  4 yogurt                          55240
    ##  5 packaged cheese                 41699
    ##  6 water seltzer sparkling water   36617
    ##  7 milk                            32644
    ##  8 chips pretzels                  31269
    ##  9 soy lactosefree                 26240
    ## 10 bread                           23635
    ## # … with 124 more rows
…
    ## `summarise()` has grouped output by 'year'. You can override using the `.groups` argument.

``` r
Excellent_df
```

    ## # A tibble: 443 × 3
    ## # Groups:   year [9]
    ##     year locationabbr average
    ##    <int> <chr>          <dbl>
    ##  1  2002 AK              27.9
    ##  2  2002 AL              18.5
    ##  3  2002 AR              24.1
    ##  4  2002 AZ              24.1
    ##  5  2002 CA              22.7
    ##  6  2002 CO              23.1
    ##  7  2002 CT              29.1
    ##  8  2002 DC              29.3
    ##  9  2002 DE              20.9
    ## 10  2002 FL              25.7
    ## # … with 433 more rows
…
## reorder the day, weekday and minute variable
mutate(
    day = as.factor(day),
    day = fct_relevel(day, 
      "Monday", "Tuesday", "Wednesday", "Thursday", "Friday" , "Saturday", "Sunday"),
    weekday = as.factor(weekday),
    minute = as.numeric(minute)
    )

accel_weekday
```

    ## # A tibble: 50,400 × 6
    ##     week day_id day    minute activity_counts weekday
    ##    <dbl>  <dbl> <fct>   <dbl>           <dbl> <fct>  
    ##  1     1      1 Friday      1            88.4 weekday
    ##  2     1      1 Friday      2            82.2 weekday
    ##  3     1      1 Friday      3            64.4 weekday
    ##  4     1      1 Friday      4            70.0 weekday
    ##  5     1      1 Friday      5            75.0 weekday
    ##  6     1      1 Friday      6            66.3 weekday
    ##  7     1      1 Friday      7            53.8 weekday
    ##  8     1      1 Friday      8            47.8 weekday
    ##  9     1      1 Friday      9            55.5 weekday
    ## 10     1      1 Friday     10            43.0 weekday
    ## # … with 50,390 more rows
…
